<?xml version="1.0" encoding="utf-8"?>
<!-- Generator: Adobe Illustrator 19.2.1, SVG Export Plug-In . SVG Version: 6.00 Build 0)  -->
<svg version="1.1" id="Layer_1" xmlns="http://www.w3.org/2000/svg" xmlns:xlink="http://www.w3.org/1999/xlink" x="0px" y="0px"
	 viewBox="0 0 512 512" style="enable-background:new 0 0 512 512;" xml:space="preserve">
<style type="text/css">
	.st0{fill:#D60A2E;}
	.st1{fill:#FED953;}
</style>
<path class="st0" d="M48,117.3h416v277.3H48V117.3z"/>
<path class="st1" d="M340.7,237l-65.7,1.5l-19-63l-19,63l-65.7-1.5l53.7,38.5l-21.3,61L256,300l52.3,36.5l-21.3-61L340.7,237z"/>
</svg>
