{
    "name": "MailTemplate",
    "alias": "mailtemplate",
    "description": "MangoAds MailTemplate Module.",
    "active": 1,
    "order": 100,
    "providers": [
        "Modules\\MailTemplate\\Providers\\MailTemplateServiceProvider",
        "Modules\\MailTemplate\\Providers\\RouteServiceProvider"
    ]
}
