{
    "name": "Group",
    "alias": "group",
    "description": "MangoAds Group Module.",
    "active": 1,
    "order": 100,
    "providers": [
        "Modules\\Group\\Providers\\GroupServiceProvider",
        "Modules\\Group\\Providers\\RouteServiceProvider"
    ],
    "files": [
        "helpers.php"
    ]
}
